{
  "main": {
    "id": "4e4017918ec96061",
    "type": "split",
    "children": [
      {
        "id": "5c9616f7a1805084",
        "type": "tabs",
        "children": [
          {
            "id": "9e23dc59ea6a9970",
            "type": "leaf",
            "state": {
              "type": "markdown",
              "state": {
                "file": "internet/videotron/Test Notes.md",
                "mode": "source",
                "source": true
              }
            }
          }
        ]
      }
    ],
    "direction": "vertical"
  },
  "left": {
    "id": "5f420923cf0f3422",
    "type": "split",
    "children": [
      {
        "id": "3af8a7a0905e616e",
        "type": "tabs",
        "children": [
          {
            "id": "ee6a6bbfdb82d63f",
            "type": "leaf",
            "state": {
              "type": "file-explorer",
              "state": {
                "sortOrder": "alphabetical"
              }
            }
          },
          {
            "id": "e2bd66330592eab5",
            "type": "leaf",
            "state": {
              "type": "search",
              "state": {
                "query": "",
                "matchingCase": false,
                "explainSearch": false,
                "collapseAll": false,
                "extraContext": false,
                "sortOrder": "alphabetical"
              }
            }
          },
          {
            "id": "fe226973d345ffd7",
            "type": "leaf",
            "state": {
              "type": "starred",
              "state": {}
            }
          }
        ]
      }
    ],
    "direction": "horizontal",
    "width": 300
  },
  "right": {
    "id": "c1089722e2e4235f",
    "type": "split",
    "children": [
      {
        "id": "475ff3ffb2d78385",
        "type": "tabs",
        "children": [
          {
            "id": "b9b05096ebf55a20",
            "type": "leaf",
            "state": {
              "type": "backlink",
              "state": {
                "file": "internet/videotron/Test Notes.md",
                "collapseAll": false,
                "extraContext": false,
                "sortOrder": "alphabetical",
                "showSearch": false,
                "searchQuery": "",
                "backlinkCollapsed": false,
                "unlinkedCollapsed": true
              }
            }
          },
          {
            "id": "ef43873eb4fa75a1",
            "type": "leaf",
            "state": {
              "type": "outgoing-link",
              "state": {
                "file": "internet/videotron/Test Notes.md",
                "linksCollapsed": false,
                "unlinkedCollapsed": true
              }
            }
          },
          {
            "id": "316aea35048fbe58",
            "type": "leaf",
            "state": {
              "type": "tag",
              "state": {
                "sortOrder": "frequency",
                "useHierarchy": true
              }
            }
          },
          {
            "id": "8cadfd870655853e",
            "type": "leaf",
            "state": {
              "type": "outline",
              "state": {
                "file": "internet/videotron/Test Notes.md"
              }
            }
          }
        ]
      }
    ],
    "direction": "horizontal",
    "width": 300,
    "collapsed": true
  },
  "active": "9e23dc59ea6a9970",
  "lastOpenFiles": [
    "internet/videotron/Videotron Server Address.md",
    "internet/videotron/Test Notes.md",
    "2022-12-09.md",
    "22222.md",
    "hardware/sdcard/sdcard_notes.md",
    "os/linux/pandoc/pandoc_mynotes.md",
    "hardware/sdcard/sdcard_front_pin_UHS1_vs_UHSII.png",
    "hardware/sdcard/sdcard_back_pin_UHS1_vs_UHSII.png"
  ]
}